Ass_1
…
pge_final_elec

## # A tibble: 90 x 4
## # Groups:   YEAR, MONTH [45]
##     YEAR MONTH CUSTOMERCLASS       TOTALKBTU
##    <dbl> <dbl> <chr>                   <dbl>
##  1  2017     1 Elec- Commercial  5203095782.
##  2  2017     1 Elec- Residential 3396906305.
##  3  2017     2 Elec- Commercial  3310609649.
##  4  2017     2 Elec- Residential 2707102579.
##  5  2017     3 Elec- Commercial  3618184720.
##  6  2017     3 Elec- Residential 2623750943.
##  7  2017     4 Elec- Commercial  3531446924.
##  8  2017     4 Elec- Residential 2398807852.
##  9  2017     5 Elec- Commercial  3808860106.
## 10  2017     5 Elec- Residential 2494508546.
## #  with 80 more rows
…
pge_final_gas

## # A tibble: 90 x 4
## # Groups:   YEAR, MONTH [45]
##     YEAR MONTH CUSTOMERCLASS       TOTALKBTU
##    <dbl> <dbl> <chr>                   <dbl>
##  1  2017     1 Gas- Commercial   3305396814.
##  2  2017     1 Gas- Residential 12928308961 
##  3  2017     2 Gas- Commercial   2376719150.
##  4  2017     2 Gas- Residential  8596086344.
##  5  2017     3 Gas- Commercial   2227861385.
##  6  2017     3 Gas- Residential  6900568366.
##  7  2017     4 Gas- Commercial   1848136241.
##  8  2017     4 Gas- Residential  5490064168.
##  9  2017     5 Gas- Commercial   1682594780.
## 10  2017     5 Gas- Residential  4230467944.
## #  with 80 more rows
…
